…
See how to animate my pull progress

This post will make a fancier graphic of my progress as well as learning about the tweenr or gganmiate package.

push <- filter(log_pp_agg, excercise == "push")
pull <- filter(log_pp_agg, excercise == "pull") %>% 
  mutate(date_frame = date)

pull

## # A tibble: 25 x 5
## # Groups:   date [25]
##          date excercise count     n date_frame
##        <date>     <chr> <int> <int>     <date>
##  1 2017-12-27      pull     6     6 2017-12-27
##  2 2017-12-28      pull     8     8 2017-12-28
##  3 2017-12-29      pull    15    15 2017-12-29
##  4 2017-12-30      pull    12    10 2017-12-30
##  5 2017-12-31      pull    14     7 2017-12-31
##  6 2018-01-01      pull    11     4 2018-01-01
##  7 2018-01-02      pull    18     9 2018-01-02
##  8 2018-01-03      pull    23    11 2018-01-03
##  9 2018-01-04      pull     9     4 2018-01-04
## 10 2018-01-05      pull     4     1 2018-01-05
## # ... with 15 more rows
…
